<?xml version="1.0" encoding="utf-8" standalone="no"?>
<!DOCTYPE svg PUBLIC "-//W3C//DTD SVG 1.1//EN"
  "http://www.w3.org/Graphics/SVG/1.1/DTD/svg11.dtd">
<!-- Created with matplotlib (https://matplotlib.org/) -->
<svg height="288pt" version="1.1" viewBox="0 0 288 288" width="288pt" xmlns="http://www.w3.org/2000/svg" xmlns:xlink="http://www.w3.org/1999/xlink">
 <defs>
  <style type="text/css">
*{stroke-linecap:butt;stroke-linejoin:round;}
  </style>
 </defs>
 <g id="figure_1">
  <g id="patch_1">
   <path d="M 0 288 
L 288 288 
L 288 0 
L 0 0 
z
" style="fill:#ffffff;"/>
  </g>
  <g id="axes_1">
   <g id="patch_2">
    <path d="M 44.57 246.04 
L 275.538832 246.04 
L 275.538832 10.8 
L 44.57 10.8 
z
" style="fill:#ffffff;"/>
   </g>
   <g id="matplotlib.axis_1">
    <g id="xtick_1">
     <g id="line2d_1">
      <path clip-path="url(#pc68d92d483)" d="M 54.802796 246.04 
L 54.802796 10.8 
" style="fill:none;stroke:#b0b0b0;stroke-linecap:square;stroke-width:0.8;"/>
     </g>
     <g id="line2d_2">
      <defs>
       <path d="M 0 0 
L 0 3.5 
" id="mec00c95634" style="stroke:#000000;stroke-width:0.8;"/>
      </defs>
      <g>
       <use style="stroke:#000000;stroke-width:0.8;" x="54.802796" xlink:href="#mec00c95634" y="246.04"/>
      </g>
     </g>
     <g id="text_1">
      <!-- 0 -->
      <defs>
       <path d="M 31.78125 66.40625 
Q 24.171875 66.40625 20.328125 58.90625 
Q 16.5 51.421875 16.5 36.375 
Q 16.5 21.390625 20.328125 13.890625 
Q 24.171875 6.390625 31.78125 6.390625 
Q 39.453125 6.390625 43.28125 13.890625 
Q 47.125 21.390625 47.125 36.375 
Q 47.125 51.421875 43.28125 58.90625 
Q 39.453125 66.40625 31.78125 66.40625 
z
M 31.78125 74.21875 
Q 44.046875 74.21875 50.515625 64.515625 
Q 56.984375 54.828125 56.984375 36.375 
Q 56.984375 17.96875 50.515625 8.265625 
Q 44.046875 -1.421875 31.78125 -1.421875 
Q 19.53125 -1.421875 13.0625 8.265625 
Q 6.59375 17.96875 6.59375 36.375 
Q 6.59375 54.828125 13.0625 64.515625 
Q 19.53125 74.21875 31.78125 74.21875 
z
" id="DejaVuSans-48"/>
      </defs>
      <g transform="translate(51.621546 260.638438)scale(0.1 -0.1)">
       <use xlink:href="#DejaVuSans-48"/>
      </g>
     </g>
    </g>
    <g id="xtick_2">
     <g id="line2d_3">
      <path clip-path="url(#pc68d92d483)" d="M 107.96018 246.04 
L 107.96018 10.8 
" style="fill:none;stroke:#b0b0b0;stroke-linecap:square;stroke-width:0.8;"/>
     </g>
     <g id="line2d_4">
      <g>
       <use style="stroke:#000000;stroke-width:0.8;" x="107.96018" xlink:href="#mec00c95634" y="246.04"/>
      </g>
     </g>
     <g id="text_2">
      <!-- 200 -->
      <defs>
       <path d="M 19.1875 8.296875 
L 53.609375 8.296875 
L 53.609375 0 
L 7.328125 0 
L 7.328125 8.296875 
Q 12.9375 14.109375 22.625 23.890625 
Q 32.328125 33.6875 34.8125 36.53125 
Q 39.546875 41.84375 41.421875 45.53125 
Q 43.3125 49.21875 43.3125 52.78125 
Q 43.3125 58.59375 39.234375 62.25 
Q 35.15625 65.921875 28.609375 65.921875 
Q 23.96875 65.921875 18.8125 64.3125 
Q 13.671875 62.703125 7.8125 59.421875 
L 7.8125 69.390625 
Q 13.765625 71.78125 18.9375 73 
Q 24.125 74.21875 28.421875 74.21875 
Q 39.75 74.21875 46.484375 68.546875 
Q 53.21875 62.890625 53.21875 53.421875 
Q 53.21875 48.921875 51.53125 44.890625 
Q 49.859375 40.875 45.40625 35.40625 
Q 44.1875 33.984375 37.640625 27.21875 
Q 31.109375 20.453125 19.1875 8.296875 
z
" id="DejaVuSans-50"/>
      </defs>
      <g transform="translate(98.41643 260.638438)scale(0.1 -0.1)">
       <use xlink:href="#DejaVuSans-50"/>
       <use x="63.623047" xlink:href="#DejaVuSans-48"/>
       <use x="127.246094" xlink:href="#DejaVuSans-48"/>
      </g>
     </g>
    </g>
    <g id="xtick_3">
     <g id="line2d_5">
      <path clip-path="url(#pc68d92d483)" d="M 161.117564 246.04 
L 161.117564 10.8 
" style="fill:none;stroke:#b0b0b0;stroke-linecap:square;stroke-width:0.8;"/>
     </g>
     <g id="line2d_6">
      <g>
       <use style="stroke:#000000;stroke-width:0.8;" x="161.117564" xlink:href="#mec00c95634" y="246.04"/>
      </g>
     </g>
     <g id="text_3">
      <!-- 400 -->
      <defs>
       <path d="M 37.796875 64.3125 
L 12.890625 25.390625 
L 37.796875 25.390625 
z
M 35.203125 72.90625 
L 47.609375 72.90625 
L 47.609375 25.390625 
L 58.015625 25.390625 
L 58.015625 17.1875 
L 47.609375 17.1875 
L 47.609375 0 
L 37.796875 0 
L 37.796875 17.1875 
L 4.890625 17.1875 
L 4.890625 26.703125 
z
" id="DejaVuSans-52"/>
      </defs>
      <g transform="translate(151.573814 260.638438)scale(0.1 -0.1)">
       <use xlink:href="#DejaVuSans-52"/>
       <use x="63.623047" xlink:href="#DejaVuSans-48"/>
       <use x="127.246094" xlink:href="#DejaVuSans-48"/>
      </g>
     </g>
    </g>
    <g id="xtick_4">
     <g id="line2d_7">
      <path clip-path="url(#pc68d92d483)" d="M 214.274947 246.04 
L 214.274947 10.8 
" style="fill:none;stroke:#b0b0b0;stroke-linecap:square;stroke-width:0.8;"/>
     </g>
     <g id="line2d_8">
      <g>
       <use style="stroke:#000000;stroke-width:0.8;" x="214.274947" xlink:href="#mec00c95634" y="246.04"/>
      </g>
     </g>
     <g id="text_4">
      <!-- 600 -->
      <defs>
       <path d="M 33.015625 40.375 
Q 26.375 40.375 22.484375 35.828125 
Q 18.609375 31.296875 18.609375 23.390625 
Q 18.609375 15.53125 22.484375 10.953125 
Q 26.375 6.390625 33.015625 6.390625 
Q 39.65625 6.390625 43.53125 10.953125 
Q 47.40625 15.53125 47.40625 23.390625 
Q 47.40625 31.296875 43.53125 35.828125 
Q 39.65625 40.375 33.015625 40.375 
z
M 52.59375 71.296875 
L 52.59375 62.3125 
Q 48.875 64.0625 45.09375 64.984375 
Q 41.3125 65.921875 37.59375 65.921875 
Q 27.828125 65.921875 22.671875 59.328125 
Q 17.53125 52.734375 16.796875 39.40625 
Q 19.671875 43.65625 24.015625 45.921875 
Q 28.375 48.1875 33.59375 48.1875 
Q 44.578125 48.1875 50.953125 41.515625 
Q 57.328125 34.859375 57.328125 23.390625 
Q 57.328125 12.15625 50.6875 5.359375 
Q 44.046875 -1.421875 33.015625 -1.421875 
Q 20.359375 -1.421875 13.671875 8.265625 
Q 6.984375 17.96875 6.984375 36.375 
Q 6.984375 53.65625 15.1875 63.9375 
Q 23.390625 74.21875 37.203125 74.21875 
Q 40.921875 74.21875 44.703125 73.484375 
Q 48.484375 72.75 52.59375 71.296875 
z
" id="DejaVuSans-54"/>
      </defs>
      <g transform="translate(204.731197 260.638438)scale(0.1 -0.1)">
       <use xlink:href="#DejaVuSans-54"/>
       <use x="63.623047" xlink:href="#DejaVuSans-48"/>
       <use x="127.246094" xlink:href="#DejaVuSans-48"/>
      </g>
     </g>
    </g>
    <g id="xtick_5">
     <g id="line2d_9">
      <path clip-path="url(#pc68d92d483)" d="M 267.432331 246.04 
L 267.432331 10.8 
" style="fill:none;stroke:#b0b0b0;stroke-linecap:square;stroke-width:0.8;"/>
     </g>
     <g id="line2d_10">
      <g>
       <use style="stroke:#000000;stroke-width:0.8;" x="267.432331" xlink:href="#mec00c95634" y="246.04"/>
      </g>
     </g>
     <g id="text_5">
      <!-- 800 -->
      <defs>
       <path d="M 31.78125 34.625 
Q 24.75 34.625 20.71875 30.859375 
Q 16.703125 27.09375 16.703125 20.515625 
Q 16.703125 13.921875 20.71875 10.15625 
Q 24.75 6.390625 31.78125 6.390625 
Q 38.8125 6.390625 42.859375 10.171875 
Q 46.921875 13.96875 46.921875 20.515625 
Q 46.921875 27.09375 42.890625 30.859375 
Q 38.875 34.625 31.78125 34.625 
z
M 21.921875 38.8125 
Q 15.578125 40.375 12.03125 44.71875 
Q 8.5 49.078125 8.5 55.328125 
Q 8.5 64.0625 14.71875 69.140625 
Q 20.953125 74.21875 31.78125 74.21875 
Q 42.671875 74.21875 48.875 69.140625 
Q 55.078125 64.0625 55.078125 55.328125 
Q 55.078125 49.078125 51.53125 44.71875 
Q 48 40.375 41.703125 38.8125 
Q 48.828125 37.15625 52.796875 32.3125 
Q 56.78125 27.484375 56.78125 20.515625 
Q 56.78125 9.90625 50.3125 4.234375 
Q 43.84375 -1.421875 31.78125 -1.421875 
Q 19.734375 -1.421875 13.25 4.234375 
Q 6.78125 9.90625 6.78125 20.515625 
Q 6.78125 27.484375 10.78125 32.3125 
Q 14.796875 37.15625 21.921875 38.8125 
z
M 18.3125 54.390625 
Q 18.3125 48.734375 21.84375 45.5625 
Q 25.390625 42.390625 31.78125 42.390625 
Q 38.140625 42.390625 41.71875 45.5625 
Q 45.3125 48.734375 45.3125 54.390625 
Q 45.3125 60.0625 41.71875 63.234375 
Q 38.140625 66.40625 31.78125 66.40625 
Q 25.390625 66.40625 21.84375 63.234375 
Q 18.3125 60.0625 18.3125 54.390625 
z
" id="DejaVuSans-56"/>
      </defs>
      <g transform="translate(257.888581 260.638438)scale(0.1 -0.1)">
       <use xlink:href="#DejaVuSans-56"/>
       <use x="63.623047" xlink:href="#DejaVuSans-48"/>
       <use x="127.246094" xlink:href="#DejaVuSans-48"/>
      </g>
     </g>
    </g>
    <g id="text_6">
     <!-- epochs -->
     <defs>
      <path d="M 56.203125 29.59375 
L 56.203125 25.203125 
L 14.890625 25.203125 
Q 15.484375 15.921875 20.484375 11.0625 
Q 25.484375 6.203125 34.421875 6.203125 
Q 39.59375 6.203125 44.453125 7.46875 
Q 49.3125 8.734375 54.109375 11.28125 
L 54.109375 2.78125 
Q 49.265625 0.734375 44.1875 -0.34375 
Q 39.109375 -1.421875 33.890625 -1.421875 
Q 20.796875 -1.421875 13.15625 6.1875 
Q 5.515625 13.8125 5.515625 26.8125 
Q 5.515625 40.234375 12.765625 48.109375 
Q 20.015625 56 32.328125 56 
Q 43.359375 56 49.78125 48.890625 
Q 56.203125 41.796875 56.203125 29.59375 
z
M 47.21875 32.234375 
Q 47.125 39.59375 43.09375 43.984375 
Q 39.0625 48.390625 32.421875 48.390625 
Q 24.90625 48.390625 20.390625 44.140625 
Q 15.875 39.890625 15.1875 32.171875 
z
" id="DejaVuSans-101"/>
      <path d="M 18.109375 8.203125 
L 18.109375 -20.796875 
L 9.078125 -20.796875 
L 9.078125 54.6875 
L 18.109375 54.6875 
L 18.109375 46.390625 
Q 20.953125 51.265625 25.265625 53.625 
Q 29.59375 56 35.59375 56 
Q 45.5625 56 51.78125 48.09375 
Q 58.015625 40.1875 58.015625 27.296875 
Q 58.015625 14.40625 51.78125 6.484375 
Q 45.5625 -1.421875 35.59375 -1.421875 
Q 29.59375 -1.421875 25.265625 0.953125 
Q 20.953125 3.328125 18.109375 8.203125 
z
M 48.6875 27.296875 
Q 48.6875 37.203125 44.609375 42.84375 
Q 40.53125 48.484375 33.40625 48.484375 
Q 26.265625 48.484375 22.1875 42.84375 
Q 18.109375 37.203125 18.109375 27.296875 
Q 18.109375 17.390625 22.1875 11.75 
Q 26.265625 6.109375 33.40625 6.109375 
Q 40.53125 6.109375 44.609375 11.75 
Q 48.6875 17.390625 48.6875 27.296875 
z
" id="DejaVuSans-112"/>
      <path d="M 30.609375 48.390625 
Q 23.390625 48.390625 19.1875 42.75 
Q 14.984375 37.109375 14.984375 27.296875 
Q 14.984375 17.484375 19.15625 11.84375 
Q 23.34375 6.203125 30.609375 6.203125 
Q 37.796875 6.203125 41.984375 11.859375 
Q 46.1875 17.53125 46.1875 27.296875 
Q 46.1875 37.015625 41.984375 42.703125 
Q 37.796875 48.390625 30.609375 48.390625 
z
M 30.609375 56 
Q 42.328125 56 49.015625 48.375 
Q 55.71875 40.765625 55.71875 27.296875 
Q 55.71875 13.875 49.015625 6.21875 
Q 42.328125 -1.421875 30.609375 -1.421875 
Q 18.84375 -1.421875 12.171875 6.21875 
Q 5.515625 13.875 5.515625 27.296875 
Q 5.515625 40.765625 12.171875 48.375 
Q 18.84375 56 30.609375 56 
z
" id="DejaVuSans-111"/>
      <path d="M 48.78125 52.59375 
L 48.78125 44.1875 
Q 44.96875 46.296875 41.140625 47.34375 
Q 37.3125 48.390625 33.40625 48.390625 
Q 24.65625 48.390625 19.8125 42.84375 
Q 14.984375 37.3125 14.984375 27.296875 
Q 14.984375 17.28125 19.8125 11.734375 
Q 24.65625 6.203125 33.40625 6.203125 
Q 37.3125 6.203125 41.140625 7.25 
Q 44.96875 8.296875 48.78125 10.40625 
L 48.78125 2.09375 
Q 45.015625 0.34375 40.984375 -0.53125 
Q 36.96875 -1.421875 32.421875 -1.421875 
Q 20.0625 -1.421875 12.78125 6.34375 
Q 5.515625 14.109375 5.515625 27.296875 
Q 5.515625 40.671875 12.859375 48.328125 
Q 20.21875 56 33.015625 56 
Q 37.15625 56 41.109375 55.140625 
Q 45.0625 54.296875 48.78125 52.59375 
z
" id="DejaVuSans-99"/>
      <path d="M 54.890625 33.015625 
L 54.890625 0 
L 45.90625 0 
L 45.90625 32.71875 
Q 45.90625 40.484375 42.875 44.328125 
Q 39.84375 48.1875 33.796875 48.1875 
Q 26.515625 48.1875 22.3125 43.546875 
Q 18.109375 38.921875 18.109375 30.90625 
L 18.109375 0 
L 9.078125 0 
L 9.078125 75.984375 
L 18.109375 75.984375 
L 18.109375 46.1875 
Q 21.34375 51.125 25.703125 53.5625 
Q 30.078125 56 35.796875 56 
Q 45.21875 56 50.046875 50.171875 
Q 54.890625 44.34375 54.890625 33.015625 
z
" id="DejaVuSans-104"/>
      <path d="M 44.28125 53.078125 
L 44.28125 44.578125 
Q 40.484375 46.53125 36.375 47.5 
Q 32.28125 48.484375 27.875 48.484375 
Q 21.1875 48.484375 17.84375 46.4375 
Q 14.5 44.390625 14.5 40.28125 
Q 14.5 37.15625 16.890625 35.375 
Q 19.28125 33.59375 26.515625 31.984375 
L 29.59375 31.296875 
Q 39.15625 29.25 43.1875 25.515625 
Q 47.21875 21.78125 47.21875 15.09375 
Q 47.21875 7.46875 41.1875 3.015625 
Q 35.15625 -1.421875 24.609375 -1.421875 
Q 20.21875 -1.421875 15.453125 -0.5625 
Q 10.6875 0.296875 5.421875 2 
L 5.421875 11.28125 
Q 10.40625 8.6875 15.234375 7.390625 
Q 20.0625 6.109375 24.8125 6.109375 
Q 31.15625 6.109375 34.5625 8.28125 
Q 37.984375 10.453125 37.984375 14.40625 
Q 37.984375 18.0625 35.515625 20.015625 
Q 33.0625 21.96875 24.703125 23.78125 
L 21.578125 24.515625 
Q 13.234375 26.265625 9.515625 29.90625 
Q 5.8125 33.546875 5.8125 39.890625 
Q 5.8125 47.609375 11.28125 51.796875 
Q 16.75 56 26.8125 56 
Q 31.78125 56 36.171875 55.265625 
Q 40.578125 54.546875 44.28125 53.078125 
z
" id="DejaVuSans-115"/>
     </defs>
     <g transform="translate(142.221603 274.316562)scale(0.1 -0.1)">
      <use xlink:href="#DejaVuSans-101"/>
      <use x="61.523438" xlink:href="#DejaVuSans-112"/>
      <use x="125" xlink:href="#DejaVuSans-111"/>
      <use x="186.181641" xlink:href="#DejaVuSans-99"/>
      <use x="241.162109" xlink:href="#DejaVuSans-104"/>
      <use x="304.541016" xlink:href="#DejaVuSans-115"/>
     </g>
    </g>
   </g>
   <g id="matplotlib.axis_2">
    <g id="ytick_1">
     <g id="line2d_11">
      <path clip-path="url(#pc68d92d483)" d="M 44.57 225.172754 
L 275.538832 225.172754 
" style="fill:none;stroke:#b0b0b0;stroke-linecap:square;stroke-width:0.8;"/>
     </g>
     <g id="line2d_12">
      <defs>
       <path d="M 0 0 
L -3.5 0 
" id="m6bce7e73ca" style="stroke:#000000;stroke-width:0.8;"/>
      </defs>
      <g>
       <use style="stroke:#000000;stroke-width:0.8;" x="44.57" xlink:href="#m6bce7e73ca" y="225.172754"/>
      </g>
     </g>
     <g id="text_7">
      <!-- 30 -->
      <defs>
       <path d="M 40.578125 39.3125 
Q 47.65625 37.796875 51.625 33 
Q 55.609375 28.21875 55.609375 21.1875 
Q 55.609375 10.40625 48.1875 4.484375 
Q 40.765625 -1.421875 27.09375 -1.421875 
Q 22.515625 -1.421875 17.65625 -0.515625 
Q 12.796875 0.390625 7.625 2.203125 
L 7.625 11.71875 
Q 11.71875 9.328125 16.59375 8.109375 
Q 21.484375 6.890625 26.8125 6.890625 
Q 36.078125 6.890625 40.9375 10.546875 
Q 45.796875 14.203125 45.796875 21.1875 
Q 45.796875 27.640625 41.28125 31.265625 
Q 36.765625 34.90625 28.71875 34.90625 
L 20.21875 34.90625 
L 20.21875 43.015625 
L 29.109375 43.015625 
Q 36.375 43.015625 40.234375 45.921875 
Q 44.09375 48.828125 44.09375 54.296875 
Q 44.09375 59.90625 40.109375 62.90625 
Q 36.140625 65.921875 28.71875 65.921875 
Q 24.65625 65.921875 20.015625 65.03125 
Q 15.375 64.15625 9.8125 62.3125 
L 9.8125 71.09375 
Q 15.4375 72.65625 20.34375 73.4375 
Q 25.25 74.21875 29.59375 74.21875 
Q 40.828125 74.21875 47.359375 69.109375 
Q 53.90625 64.015625 53.90625 55.328125 
Q 53.90625 49.265625 50.4375 45.09375 
Q 46.96875 40.921875 40.578125 39.3125 
z
" id="DejaVuSans-51"/>
      </defs>
      <g transform="translate(24.845 228.971972)scale(0.1 -0.1)">
       <use xlink:href="#DejaVuSans-51"/>
       <use x="63.623047" xlink:href="#DejaVuSans-48"/>
      </g>
     </g>
    </g>
    <g id="ytick_2">
     <g id="line2d_13">
      <path clip-path="url(#pc68d92d483)" d="M 44.57 193.251834 
L 275.538832 193.251834 
" style="fill:none;stroke:#b0b0b0;stroke-linecap:square;stroke-width:0.8;"/>
     </g>
     <g id="line2d_14">
      <g>
       <use style="stroke:#000000;stroke-width:0.8;" x="44.57" xlink:href="#m6bce7e73ca" y="193.251834"/>
      </g>
     </g>
     <g id="text_8">
      <!-- 40 -->
      <g transform="translate(24.845 197.051053)scale(0.1 -0.1)">
       <use xlink:href="#DejaVuSans-52"/>
       <use x="63.623047" xlink:href="#DejaVuSans-48"/>
      </g>
     </g>
    </g>
    <g id="ytick_3">
     <g id="line2d_15">
      <path clip-path="url(#pc68d92d483)" d="M 44.57 161.330914 
L 275.538832 161.330914 
" style="fill:none;stroke:#b0b0b0;stroke-linecap:square;stroke-width:0.8;"/>
     </g>
     <g id="line2d_16">
      <g>
       <use style="stroke:#000000;stroke-width:0.8;" x="44.57" xlink:href="#m6bce7e73ca" y="161.330914"/>
      </g>
     </g>
     <g id="text_9">
      <!-- 50 -->
      <defs>
       <path d="M 10.796875 72.90625 
L 49.515625 72.90625 
L 49.515625 64.59375 
L 19.828125 64.59375 
L 19.828125 46.734375 
Q 21.96875 47.46875 24.109375 47.828125 
Q 26.265625 48.1875 28.421875 48.1875 
Q 40.625 48.1875 47.75 41.5 
Q 54.890625 34.8125 54.890625 23.390625 
Q 54.890625 11.625 47.5625 5.09375 
Q 40.234375 -1.421875 26.90625 -1.421875 
Q 22.3125 -1.421875 17.546875 -0.640625 
Q 12.796875 0.140625 7.71875 1.703125 
L 7.71875 11.625 
Q 12.109375 9.234375 16.796875 8.0625 
Q 21.484375 6.890625 26.703125 6.890625 
Q 35.15625 6.890625 40.078125 11.328125 
Q 45.015625 15.765625 45.015625 23.390625 
Q 45.015625 31 40.078125 35.4375 
Q 35.15625 39.890625 26.703125 39.890625 
Q 22.75 39.890625 18.8125 39.015625 
Q 14.890625 38.140625 10.796875 36.28125 
z
" id="DejaVuSans-53"/>
      </defs>
      <g transform="translate(24.845 165.130133)scale(0.1 -0.1)">
       <use xlink:href="#DejaVuSans-53"/>
       <use x="63.623047" xlink:href="#DejaVuSans-48"/>
      </g>
     </g>
    </g>
    <g id="ytick_4">
     <g id="line2d_17">
      <path clip-path="url(#pc68d92d483)" d="M 44.57 129.409994 
L 275.538832 129.409994 
" style="fill:none;stroke:#b0b0b0;stroke-linecap:square;stroke-width:0.8;"/>
     </g>
     <g id="line2d_18">
      <g>
       <use style="stroke:#000000;stroke-width:0.8;" x="44.57" xlink:href="#m6bce7e73ca" y="129.409994"/>
      </g>
     </g>
     <g id="text_10">
      <!-- 60 -->
      <g transform="translate(24.845 133.209213)scale(0.1 -0.1)">
       <use xlink:href="#DejaVuSans-54"/>
       <use x="63.623047" xlink:href="#DejaVuSans-48"/>
      </g>
     </g>
    </g>
    <g id="ytick_5">
     <g id="line2d_19">
      <path clip-path="url(#pc68d92d483)" d="M 44.57 97.489075 
L 275.538832 97.489075 
" style="fill:none;stroke:#b0b0b0;stroke-linecap:square;stroke-width:0.8;"/>
     </g>
     <g id="line2d_20">
      <g>
       <use style="stroke:#000000;stroke-width:0.8;" x="44.57" xlink:href="#m6bce7e73ca" y="97.489075"/>
      </g>
     </g>
     <g id="text_11">
      <!-- 70 -->
      <defs>
       <path d="M 8.203125 72.90625 
L 55.078125 72.90625 
L 55.078125 68.703125 
L 28.609375 0 
L 18.3125 0 
L 43.21875 64.59375 
L 8.203125 64.59375 
z
" id="DejaVuSans-55"/>
      </defs>
      <g transform="translate(24.845 101.288293)scale(0.1 -0.1)">
       <use xlink:href="#DejaVuSans-55"/>
       <use x="63.623047" xlink:href="#DejaVuSans-48"/>
      </g>
     </g>
    </g>
    <g id="ytick_6">
     <g id="line2d_21">
      <path clip-path="url(#pc68d92d483)" d="M 44.57 65.568155 
L 275.538832 65.568155 
" style="fill:none;stroke:#b0b0b0;stroke-linecap:square;stroke-width:0.8;"/>
     </g>
     <g id="line2d_22">
      <g>
       <use style="stroke:#000000;stroke-width:0.8;" x="44.57" xlink:href="#m6bce7e73ca" y="65.568155"/>
      </g>
     </g>
     <g id="text_12">
      <!-- 80 -->
      <g transform="translate(24.845 69.367374)scale(0.1 -0.1)">
       <use xlink:href="#DejaVuSans-56"/>
       <use x="63.623047" xlink:href="#DejaVuSans-48"/>
      </g>
     </g>
    </g>
    <g id="ytick_7">
     <g id="line2d_23">
      <path clip-path="url(#pc68d92d483)" d="M 44.57 33.647235 
L 275.538832 33.647235 
" style="fill:none;stroke:#b0b0b0;stroke-linecap:square;stroke-width:0.8;"/>
     </g>
     <g id="line2d_24">
      <g>
       <use style="stroke:#000000;stroke-width:0.8;" x="44.57" xlink:href="#m6bce7e73ca" y="33.647235"/>
      </g>
     </g>
     <g id="text_13">
      <!-- 90 -->
      <defs>
       <path d="M 10.984375 1.515625 
L 10.984375 10.5 
Q 14.703125 8.734375 18.5 7.8125 
Q 22.3125 6.890625 25.984375 6.890625 
Q 35.75 6.890625 40.890625 13.453125 
Q 46.046875 20.015625 46.78125 33.40625 
Q 43.953125 29.203125 39.59375 26.953125 
Q 35.25 24.703125 29.984375 24.703125 
Q 19.046875 24.703125 12.671875 31.3125 
Q 6.296875 37.9375 6.296875 49.421875 
Q 6.296875 60.640625 12.9375 67.421875 
Q 19.578125 74.21875 30.609375 74.21875 
Q 43.265625 74.21875 49.921875 64.515625 
Q 56.59375 54.828125 56.59375 36.375 
Q 56.59375 19.140625 48.40625 8.859375 
Q 40.234375 -1.421875 26.421875 -1.421875 
Q 22.703125 -1.421875 18.890625 -0.6875 
Q 15.09375 0.046875 10.984375 1.515625 
z
M 30.609375 32.421875 
Q 37.25 32.421875 41.125 36.953125 
Q 45.015625 41.5 45.015625 49.421875 
Q 45.015625 57.28125 41.125 61.84375 
Q 37.25 66.40625 30.609375 66.40625 
Q 23.96875 66.40625 20.09375 61.84375 
Q 16.21875 57.28125 16.21875 49.421875 
Q 16.21875 41.5 20.09375 36.953125 
Q 23.96875 32.421875 30.609375 32.421875 
z
" id="DejaVuSans-57"/>
      </defs>
      <g transform="translate(24.845 37.446454)scale(0.1 -0.1)">
       <use xlink:href="#DejaVuSans-57"/>
       <use x="63.623047" xlink:href="#DejaVuSans-48"/>
      </g>
     </g>
    </g>
    <g id="text_14">
     <!-- Accuracy -->
     <defs>
      <path d="M 34.1875 63.1875 
L 20.796875 26.90625 
L 47.609375 26.90625 
z
M 28.609375 72.90625 
L 39.796875 72.90625 
L 67.578125 0 
L 57.328125 0 
L 50.6875 18.703125 
L 17.828125 18.703125 
L 11.1875 0 
L 0.78125 0 
z
" id="DejaVuSans-65"/>
      <path d="M 8.5 21.578125 
L 8.5 54.6875 
L 17.484375 54.6875 
L 17.484375 21.921875 
Q 17.484375 14.15625 20.5 10.265625 
Q 23.53125 6.390625 29.59375 6.390625 
Q 36.859375 6.390625 41.078125 11.03125 
Q 45.3125 15.671875 45.3125 23.6875 
L 45.3125 54.6875 
L 54.296875 54.6875 
L 54.296875 0 
L 45.3125 0 
L 45.3125 8.40625 
Q 42.046875 3.421875 37.71875 1 
Q 33.40625 -1.421875 27.6875 -1.421875 
Q 18.265625 -1.421875 13.375 4.4375 
Q 8.5 10.296875 8.5 21.578125 
z
M 31.109375 56 
z
" id="DejaVuSans-117"/>
      <path d="M 41.109375 46.296875 
Q 39.59375 47.171875 37.8125 47.578125 
Q 36.03125 48 33.890625 48 
Q 26.265625 48 22.1875 43.046875 
Q 18.109375 38.09375 18.109375 28.8125 
L 18.109375 0 
L 9.078125 0 
L 9.078125 54.6875 
L 18.109375 54.6875 
L 18.109375 46.1875 
Q 20.953125 51.171875 25.484375 53.578125 
Q 30.03125 56 36.53125 56 
Q 37.453125 56 38.578125 55.875 
Q 39.703125 55.765625 41.0625 55.515625 
z
" id="DejaVuSans-114"/>
      <path d="M 34.28125 27.484375 
Q 23.390625 27.484375 19.1875 25 
Q 14.984375 22.515625 14.984375 16.5 
Q 14.984375 11.71875 18.140625 8.90625 
Q 21.296875 6.109375 26.703125 6.109375 
Q 34.1875 6.109375 38.703125 11.40625 
Q 43.21875 16.703125 43.21875 25.484375 
L 43.21875 27.484375 
z
M 52.203125 31.203125 
L 52.203125 0 
L 43.21875 0 
L 43.21875 8.296875 
Q 40.140625 3.328125 35.546875 0.953125 
Q 30.953125 -1.421875 24.3125 -1.421875 
Q 15.921875 -1.421875 10.953125 3.296875 
Q 6 8.015625 6 15.921875 
Q 6 25.140625 12.171875 29.828125 
Q 18.359375 34.515625 30.609375 34.515625 
L 43.21875 34.515625 
L 43.21875 35.40625 
Q 43.21875 41.609375 39.140625 45 
Q 35.0625 48.390625 27.6875 48.390625 
Q 23 48.390625 18.546875 47.265625 
Q 14.109375 46.140625 10.015625 43.890625 
L 10.015625 52.203125 
Q 14.9375 54.109375 19.578125 55.046875 
Q 24.21875 56 28.609375 56 
Q 40.484375 56 46.34375 49.84375 
Q 52.203125 43.703125 52.203125 31.203125 
z
" id="DejaVuSans-97"/>
      <path d="M 32.171875 -5.078125 
Q 28.375 -14.84375 24.75 -17.8125 
Q 21.140625 -20.796875 15.09375 -20.796875 
L 7.90625 -20.796875 
L 7.90625 -13.28125 
L 13.1875 -13.28125 
Q 16.890625 -13.28125 18.9375 -11.515625 
Q 21 -9.765625 23.484375 -3.21875 
L 25.09375 0.875 
L 2.984375 54.6875 
L 12.5 54.6875 
L 29.59375 11.921875 
L 46.6875 54.6875 
L 56.203125 54.6875 
z
" id="DejaVuSans-121"/>
     </defs>
     <g transform="translate(18.765313 151.334844)rotate(-90)scale(0.1 -0.1)">
      <use xlink:href="#DejaVuSans-65"/>
      <use x="68.392578" xlink:href="#DejaVuSans-99"/>
      <use x="123.373047" xlink:href="#DejaVuSans-99"/>
      <use x="178.353516" xlink:href="#DejaVuSans-117"/>
      <use x="241.732422" xlink:href="#DejaVuSans-114"/>
      <use x="282.845703" xlink:href="#DejaVuSans-97"/>
      <use x="344.125" xlink:href="#DejaVuSans-99"/>
      <use x="399.105469" xlink:href="#DejaVuSans-121"/>
     </g>
    </g>
   </g>
   <g id="line2d_25">
    <path clip-path="url(#pc68d92d483)" d="M 55.068583 182.263675 
L 55.33437 183.123081 
L 55.600157 177.905234 
L 55.865944 180.483466 
L 56.131731 178.334943 
L 56.663305 169.495307 
L 56.929092 171.766597 
L 57.194879 176.92306 
L 57.460666 174.897305 
L 57.992239 165.136866 
L 58.258026 163.54082 
L 58.523813 164.768552 
L 58.7896 168.635888 
L 59.055387 155.9903 
L 59.321174 161.699228 
L 59.586961 153.043754 
L 59.852748 148.194233 
L 60.118535 146.9665 
L 60.384322 135.118922 
L 60.650109 138.863503 
L 60.915895 125.604042 
L 61.181682 120.570358 
L 61.447469 113.388139 
L 61.979043 105.407909 
L 62.510617 89.508845 
L 62.776404 93.069262 
L 63.042191 86.869241 
L 63.307978 86.316753 
L 63.573765 79.687034 
L 63.839552 79.441476 
L 64.105338 80.976126 
L 64.371125 80.239499 
L 64.636912 80.116732 
L 64.902699 73.916711 
L 65.168486 76.61771 
L 65.434273 76.740477 
L 65.70006 74.898896 
L 65.965847 70.724619 
L 66.231634 64.463202 
L 66.497421 67.348364 
L 66.763208 64.217643 
L 67.028995 62.744389 
L 67.294782 59.061204 
L 67.826355 62.253296 
L 68.092142 61.639436 
L 68.357929 58.140414 
L 68.623716 57.035436 
L 69.15529 51.449275 
L 69.421077 52.492857 
L 69.686864 50.835415 
L 69.952651 52.001764 
L 70.218438 51.449275 
L 70.484225 53.045321 
L 70.750011 52.554253 
L 71.015798 48.318579 
L 71.281585 47.029463 
L 71.547372 44.758161 
L 71.813159 47.275022 
L 72.078946 46.415603 
L 72.344733 44.328464 
L 72.61052 45.92451 
L 72.876307 44.819557 
L 73.142094 46.968092 
L 73.407881 47.520556 
L 73.673668 43.898767 
L 73.939454 42.241325 
L 74.205241 41.443302 
L 74.471028 41.136372 
L 74.736815 40.461116 
L 75.002602 40.583908 
L 75.268389 39.356163 
L 75.534176 40.154186 
L 75.799963 40.461116 
L 76.331537 40.092815 
L 76.597324 38.680907 
L 76.863111 42.855185 
L 77.394684 38.189839 
L 77.660471 39.847256 
L 77.926258 38.005676 
L 78.192045 38.619536 
L 78.723619 35.181885 
L 78.989406 37.207653 
L 79.52098 37.207653 
L 79.786767 34.322491 
L 80.052554 36.532397 
L 80.318341 33.278909 
L 80.584127 34.629421 
L 80.849914 34.322491 
L 81.115701 34.997747 
L 81.381488 34.752188 
L 81.647275 33.340305 
L 81.913062 37.882884 
L 82.178849 37.63735 
L 82.444636 33.647235 
L 82.710423 33.033375 
L 82.97621 33.401701 
L 83.241997 33.094746 
L 83.507784 33.094746 
L 83.77357 31.4987 
L 84.039357 34.138328 
L 84.305144 32.787816 
L 84.570931 32.296723 
L 84.836718 31.314562 
L 85.102505 31.744259 
L 85.368292 30.209609 
L 85.634079 31.375933 
L 85.899866 30.639306 
L 86.165653 31.621492 
L 86.43144 29.472957 
L 86.697227 29.595724 
L 87.2288 31.253166 
L 87.494587 30.332376 
L 87.760374 30.086817 
L 88.026161 30.516539 
L 88.291948 31.437329 
L 88.823522 30.086817 
L 89.089309 28.12247 
L 89.355096 28.490771 
L 89.620883 29.902654 
L 89.88667 26.833354 
L 90.152456 29.288794 
L 90.418243 30.025446 
L 90.68403 28.797701 
L 90.949817 31.621492 
L 91.215604 30.148213 
L 91.481391 29.779887 
L 91.747178 28.981864 
L 92.012965 29.96405 
L 92.278752 29.35019 
L 92.544539 28.368004 
L 92.810326 27.938307 
L 93.076113 28.613563 
L 93.3419 28.061074 
L 93.873473 29.104631 
L 94.13926 29.411586 
L 94.405047 27.876911 
L 95.202408 28.674934 
L 95.468195 28.552167 
L 95.733982 29.04326 
L 95.999769 28.4294 
L 96.265556 29.534353 
L 96.531343 27.078888 
L 96.797129 27.447214 
L 97.062916 27.508585 
L 97.328703 28.920493 
L 97.59449 28.245237 
L 98.126064 28.73633 
L 98.391851 26.587795 
L 98.657638 26.280865 
L 98.923425 26.219494 
L 99.189212 28.061074 
L 99.720786 26.158098 
L 99.986572 26.280865 
L 100.252359 27.324447 
L 100.518146 26.280865 
L 100.783933 26.403632 
L 101.04972 27.017517 
L 101.315507 28.552167 
L 101.581294 27.324447 
L 101.847081 30.209609 
L 102.378655 26.771958 
L 102.644442 26.526424 
L 102.910229 27.876911 
L 103.176015 26.280865 
L 103.441802 25.728401 
L 103.707589 26.096702 
L 103.973376 27.999678 
L 104.239163 27.631377 
L 104.50495 27.631377 
L 105.036524 25.667005 
L 105.302311 25.544238 
L 105.568098 26.403632 
L 105.833885 26.280865 
L 106.099672 25.912539 
L 106.365459 27.876911 
L 106.631245 27.263051 
L 106.897032 27.508585 
L 107.162819 26.649191 
L 107.428606 26.342261 
L 107.694393 26.403632 
L 107.96018 26.342261 
L 108.225967 25.973935 
L 108.491754 27.201655 
L 108.757541 27.569981 
L 109.023328 27.017517 
L 109.289115 27.140284 
L 109.820688 26.280865 
L 110.086475 27.017517 
L 110.352262 25.237308 
L 110.883836 26.771958 
L 111.149623 25.298679 
L 111.41541 26.096702 
L 111.681197 26.280865 
L 111.946984 28.4294 
L 112.212771 27.569981 
L 112.478558 29.04326 
L 112.744345 27.263051 
L 113.010131 27.876911 
L 113.275918 26.771958 
L 113.541705 28.245237 
L 113.807492 25.421471 
L 114.073279 25.360075 
L 114.339066 25.973935 
L 114.604853 25.851168 
L 114.87064 25.421471 
L 115.136427 25.973935 
L 115.402214 24.684819 
L 115.668001 25.482842 
L 115.933788 25.360075 
L 116.199574 26.526424 
L 116.465361 25.728401 
L 116.731148 26.710562 
L 116.996935 25.298679 
L 117.262722 26.710562 
L 117.528509 25.421471 
L 117.794296 25.851168 
L 118.060083 25.360075 
L 118.32587 25.237308 
L 118.857444 26.587795 
L 119.123231 25.053145 
L 119.389017 26.342261 
L 119.654804 25.851168 
L 119.920591 25.605609 
L 120.186378 25.973935 
L 120.452165 26.649191 
L 120.717952 24.807586 
L 120.983739 27.324447 
L 121.249526 26.956121 
L 121.515313 25.728401 
L 121.7811 25.237308 
L 122.046887 25.973935 
L 122.312674 25.298679 
L 122.578461 25.605609 
L 123.110034 25.053145 
L 123.375821 25.175912 
L 123.641608 24.868982 
L 123.907395 25.421471 
L 124.173182 24.500656 
L 124.704756 25.175912 
L 124.970543 25.114516 
L 125.23633 25.298679 
L 125.502117 25.667005 
L 125.767904 25.728401 
L 126.03369 25.912539 
L 126.299477 25.298679 
L 126.831051 25.482842 
L 127.096838 25.421471 
L 127.362625 24.684819 
L 127.628412 24.500656 
L 127.894199 24.746215 
L 128.159986 24.500656 
L 128.425773 25.175912 
L 128.69156 24.684819 
L 128.957347 25.667005 
L 129.223133 25.667005 
L 129.48892 24.991749 
L 129.754707 24.868982 
L 130.020494 25.851168 
L 130.286281 25.544238 
L 130.552068 24.746215 
L 130.817855 26.280865 
L 131.083642 25.912539 
L 131.349429 26.587795 
L 132.14679 25.053145 
L 132.412576 25.667005 
L 132.678363 24.562052 
L 132.94415 24.868982 
L 133.209937 24.255122 
L 133.475724 24.439285 
L 134.007298 25.482842 
L 134.273085 24.377889 
L 134.538872 24.623448 
L 134.804659 24.623448 
L 135.070446 23.886796 
L 135.336233 24.070959 
L 135.60202 25.421471 
L 135.867806 23.948192 
L 136.133593 25.728401 
L 136.39938 25.912539 
L 136.665167 25.605609 
L 136.930954 24.439285 
L 137.462528 25.605609 
L 137.994102 23.948192 
L 138.259889 25.360075 
L 138.525676 25.851168 
L 138.791463 23.764029 
L 139.057249 27.263051 
L 139.323036 25.175912 
L 139.588823 24.316493 
L 139.85461 24.255122 
L 140.386184 24.439285 
L 140.651971 23.886796 
L 140.917758 24.193726 
L 141.449332 25.360075 
L 141.715119 25.421471 
L 141.980906 24.377889 
L 142.246692 25.360075 
L 142.512479 24.684819 
L 143.044053 24.991749 
L 144.107201 24.377889 
L 144.372988 24.684819 
L 144.638775 24.746215 
L 144.904562 24.132355 
L 145.170349 23.886796 
L 145.436135 25.237308 
L 145.701922 23.825425 
L 145.967709 24.807586 
L 146.233496 24.070959 
L 146.499283 24.623448 
L 146.76507 24.070959 
L 147.296644 24.500656 
L 147.828218 24.193726 
L 148.094005 24.193726 
L 148.359792 24.807586 
L 148.625579 24.377889 
L 148.891365 24.991749 
L 149.157152 23.764029 
L 149.422939 25.421471 
L 149.954513 24.070959 
L 150.2203 23.702633 
L 150.486087 23.641262 
L 150.751874 24.930378 
L 151.017661 24.439285 
L 151.283448 24.193726 
L 151.549235 24.439285 
L 151.815022 26.096702 
L 152.080808 24.132355 
L 152.346595 24.193726 
L 152.612382 23.948192 
L 152.878169 24.070959 
L 153.143956 25.053145 
L 153.67553 23.825425 
L 154.207104 23.886796 
L 154.738678 23.027402 
L 155.004465 23.395703 
L 155.270251 24.439285 
L 155.536038 24.930378 
L 156.067612 23.641262 
L 156.333399 23.150169 
L 156.599186 23.641262 
L 157.13076 24.070959 
L 157.396547 25.667005 
L 157.662334 23.579866 
L 157.928121 24.991749 
L 158.193908 23.457099 
L 158.459694 24.132355 
L 158.991268 22.90461 
L 159.788629 24.500656 
L 160.320203 24.009563 
L 160.851777 23.886796 
L 161.117564 25.053145 
L 161.383351 23.272936 
L 161.914924 24.316493 
L 162.180711 24.132355 
L 162.446498 24.132355 
L 162.978072 23.334332 
L 163.509646 25.114516 
L 163.775433 23.51847 
L 164.04122 24.377889 
L 164.572794 23.825425 
L 164.838581 23.948192 
L 165.104367 22.59768 
L 165.370154 23.948192 
L 165.635941 23.334332 
L 165.901728 24.132355 
L 166.167515 23.395703 
L 166.433302 24.500656 
L 166.699089 24.623448 
L 166.964876 22.90461 
L 167.230663 23.395703 
L 167.49645 23.334332 
L 167.762237 23.825425 
L 168.29381 22.720447 
L 168.825384 25.114516 
L 169.091171 23.21154 
L 169.356958 23.334332 
L 169.622745 23.702633 
L 169.888532 23.825425 
L 170.154319 22.781843 
L 170.420106 22.843239 
L 170.685893 24.562052 
L 170.95168 23.088773 
L 171.217467 22.720447 
L 171.483253 23.51847 
L 171.74904 23.825425 
L 172.014827 23.51847 
L 172.280614 24.377889 
L 172.546401 23.764029 
L 172.812188 24.009563 
L 173.077975 22.966006 
L 173.343762 23.457099 
L 173.609549 23.457099 
L 173.875336 23.21154 
L 174.141123 23.579866 
L 174.672697 23.825425 
L 174.938483 24.439285 
L 175.20427 23.088773 
L 175.470057 24.070959 
L 175.735844 23.088773 
L 176.001631 23.579866 
L 176.267418 24.377889 
L 176.533205 22.843239 
L 177.064779 23.886796 
L 177.330566 23.21154 
L 177.596353 23.764029 
L 177.86214 23.457099 
L 178.393713 23.764029 
L 178.925287 22.59768 
L 179.191074 24.193726 
L 179.456861 23.088773 
L 179.722648 23.21154 
L 179.988435 26.158098 
L 180.254222 23.764029 
L 180.520009 22.474913 
L 180.785796 23.641262 
L 181.051583 23.334332 
L 181.317369 23.51847 
L 181.583156 23.088773 
L 181.848943 22.413517 
L 182.11473 23.702633 
L 182.380517 22.59768 
L 182.646304 23.334332 
L 182.912091 22.352146 
L 183.177878 24.193726 
L 183.443665 23.272936 
L 183.709452 23.272936 
L 183.975239 22.167983 
L 184.241026 22.843239 
L 184.506812 22.659076 
L 184.772599 22.90461 
L 185.038386 23.948192 
L 185.304173 23.702633 
L 185.56996 23.825425 
L 185.835747 23.457099 
L 186.101534 24.132355 
L 186.633108 22.229379 
L 186.898895 23.395703 
L 187.164682 22.90461 
L 187.430469 21.98382 
L 187.962042 23.457099 
L 188.227829 22.966006 
L 188.493616 22.843239 
L 189.02519 23.027402 
L 189.290977 22.843239 
L 189.556764 23.150169 
L 189.822551 23.088773 
L 190.088338 23.21154 
L 190.354125 23.641262 
L 190.619912 23.51847 
L 190.885699 23.272936 
L 191.151485 22.659076 
L 191.417272 23.088773 
L 191.683059 23.272936 
L 191.948846 22.659076 
L 192.214633 23.395703 
L 192.48042 23.088773 
L 192.746207 22.536309 
L 193.011994 23.457099 
L 193.543568 24.193726 
L 193.809355 23.150169 
L 194.075142 23.579866 
L 194.340928 23.088773 
L 194.606715 22.90461 
L 194.872502 23.150169 
L 195.138289 22.536309 
L 195.404076 22.659076 
L 195.669863 23.027402 
L 195.93565 22.720447 
L 196.201437 23.027402 
L 196.467224 22.536309 
L 196.733011 22.536309 
L 196.998798 22.29075 
L 197.264585 23.51847 
L 197.530371 22.659076 
L 197.796158 23.21154 
L 198.061945 22.229379 
L 198.327732 22.536309 
L 198.593519 23.641262 
L 198.859306 22.045216 
L 199.125093 22.229379 
L 199.39088 22.659076 
L 199.656667 22.229379 
L 199.922454 22.167983 
L 200.454028 23.641262 
L 200.985601 22.045216 
L 201.517175 23.579866 
L 202.048749 22.659076 
L 202.314536 22.536309 
L 202.580323 22.966006 
L 202.84611 22.781843 
L 203.111897 22.29075 
L 203.377684 22.781843 
L 203.643471 22.045216 
L 204.175044 23.027402 
L 204.440831 22.229379 
L 204.706618 22.352146 
L 204.972405 22.29075 
L 205.503979 22.720447 
L 205.769766 23.395703 
L 206.035553 22.29075 
L 206.30134 22.966006 
L 206.567127 22.781843 
L 206.832914 23.21154 
L 207.098701 22.843239 
L 207.364487 22.106587 
L 207.630274 22.966006 
L 208.161848 22.352146 
L 208.427635 22.474913 
L 208.693422 22.966006 
L 208.959209 22.781843 
L 209.224996 22.229379 
L 209.490783 22.352146 
L 209.75657 23.21154 
L 210.022357 22.29075 
L 210.55393 22.659076 
L 210.819717 21.799657 
L 211.085504 23.272936 
L 211.351291 22.781843 
L 211.617078 24.009563 
L 211.882865 23.51847 
L 212.148652 22.413517 
L 212.414439 23.579866 
L 212.680226 22.536309 
L 212.946013 23.088773 
L 213.2118 21.922424 
L 213.477587 23.150169 
L 213.743373 22.106587 
L 214.00916 22.474913 
L 214.274947 22.474913 
L 214.540734 22.167983 
L 214.806521 22.045216 
L 215.072308 22.167983 
L 215.338095 22.966006 
L 215.603882 21.738286 
L 215.869669 22.720447 
L 216.135456 22.474913 
L 216.401243 22.720447 
L 216.66703 22.59768 
L 216.932817 22.352146 
L 217.198603 22.59768 
L 217.46439 22.59768 
L 217.730177 23.088773 
L 218.261751 22.229379 
L 218.527538 22.90461 
L 218.793325 22.29075 
L 219.059112 22.536309 
L 219.324899 22.167983 
L 219.590686 22.536309 
L 219.856473 22.29075 
L 220.12226 22.229379 
L 220.388046 21.861053 
L 220.91962 22.59768 
L 221.185407 22.536309 
L 221.451194 22.781843 
L 221.716981 22.659076 
L 221.982768 22.106587 
L 222.248555 22.229379 
L 222.514342 22.59768 
L 222.780129 22.659076 
L 223.045916 22.413517 
L 223.311703 22.966006 
L 223.577489 22.29075 
L 223.843276 22.229379 
L 224.109063 22.474913 
L 224.37485 21.922424 
L 224.640637 22.413517 
L 225.172211 22.659076 
L 225.437998 22.106587 
L 225.703785 22.843239 
L 225.969572 22.045216 
L 226.235359 22.843239 
L 226.501146 22.843239 
L 226.766932 21.799657 
L 227.032719 21.98382 
L 227.298506 22.474913 
L 227.564293 22.59768 
L 227.83008 22.536309 
L 228.095867 22.720447 
L 228.361654 21.98382 
L 228.627441 22.966006 
L 228.893228 22.59768 
L 229.159015 22.659076 
L 229.424802 22.966006 
L 229.690589 22.29075 
L 229.956376 22.781843 
L 230.222162 22.843239 
L 230.487949 22.106587 
L 230.753736 23.21154 
L 231.28531 22.167983 
L 231.551097 21.922424 
L 231.816884 23.825425 
L 232.082671 21.738286 
L 232.614245 22.781843 
L 232.880032 21.98382 
L 233.145819 22.167983 
L 233.411605 22.90461 
L 233.677392 22.720447 
L 233.943179 21.738286 
L 234.208966 22.29075 
L 234.474753 22.413517 
L 234.74054 22.659076 
L 235.006327 21.861053 
L 235.272114 22.659076 
L 235.537901 22.659076 
L 235.803688 22.536309 
L 236.069475 22.536309 
L 236.335262 22.106587 
L 236.601048 22.659076 
L 236.866835 22.106587 
L 237.132622 22.413517 
L 237.929983 22.413517 
L 238.19577 22.167983 
L 238.461557 22.659076 
L 238.727344 22.045216 
L 238.993131 21.922424 
L 239.258918 23.088773 
L 239.524705 21.922424 
L 239.790491 22.229379 
L 240.056278 21.922424 
L 240.587852 22.720447 
L 241.119426 21.98382 
L 241.651 22.781843 
L 241.916787 22.29075 
L 242.448361 22.781843 
L 242.714148 22.781843 
L 242.979935 21.98382 
L 243.245721 22.167983 
L 243.511508 21.738286 
L 243.777295 22.59768 
L 244.043082 22.659076 
L 244.574656 22.474913 
L 244.840443 22.536309 
L 245.10623 21.98382 
L 245.637804 22.720447 
L 245.903591 22.229379 
L 246.435164 22.536309 
L 246.700951 22.413517 
L 246.966738 22.045216 
L 247.232525 22.045216 
L 247.498312 22.413517 
L 247.764099 22.167983 
L 248.029886 22.29075 
L 248.295673 21.799657 
L 248.56146 22.413517 
L 248.827247 22.167983 
L 249.093034 21.738286 
L 249.358821 22.720447 
L 249.624607 22.29075 
L 249.890394 22.229379 
L 250.421968 21.799657 
L 250.687755 22.536309 
L 250.953542 22.045216 
L 251.219329 22.536309 
L 251.485116 22.167983 
L 252.01669 22.352146 
L 252.282477 22.229379 
L 252.548264 21.67689 
L 252.81405 22.045216 
L 253.079837 22.167983 
L 253.345624 22.167983 
L 253.877198 22.413517 
L 254.142985 22.29075 
L 254.408772 22.045216 
L 254.674559 22.413517 
L 254.940346 22.29075 
L 255.206133 21.98382 
L 255.47192 21.861053 
L 256.003493 22.352146 
L 256.26928 21.861053 
L 256.535067 21.98382 
L 256.800854 22.536309 
L 257.332428 21.492727 
L 257.864002 22.413517 
L 258.129789 22.106587 
L 258.395576 22.474913 
L 258.661363 22.352146 
L 258.92715 21.922424 
L 259.458723 22.59768 
L 259.72451 22.106587 
L 259.990297 22.045216 
L 260.256084 22.29075 
L 260.521871 21.922424 
L 260.787658 21.98382 
L 261.053445 21.554123 
L 261.319232 22.106587 
L 261.585019 21.738286 
L 261.850806 22.106587 
L 262.38238 21.861053 
L 262.913953 21.922424 
L 263.445527 22.045216 
L 263.711314 22.229379 
L 263.977101 22.045216 
L 264.242888 22.413517 
L 264.774462 21.98382 
L 265.040249 22.167983 
L 265.040249 22.167983 
" style="fill:none;stroke:#1f77b4;stroke-linecap:square;stroke-width:1.5;"/>
   </g>
   <g id="line2d_26">
    <path clip-path="url(#pc68d92d483)" d="M 55.068583 181.199612 
L 55.33437 224.430403 
L 55.600157 220.281995 
L 55.865944 203.033339 
L 56.131731 204.99838 
L 56.397518 195.173197 
L 56.929092 220.063658 
L 57.194879 223.775391 
L 57.726452 213.731871 
L 57.992239 220.281995 
L 58.258026 211.985173 
L 58.523813 235.347273 
L 58.7896 230.762184 
L 59.055387 215.260238 
L 59.321174 211.548498 
L 59.586961 217.225267 
L 59.852748 213.731871 
L 60.118535 199.976617 
L 60.384322 194.518191 
L 60.650109 184.911339 
L 60.915895 158.710855 
L 61.181682 189.278085 
L 61.447469 159.802547 
L 61.713256 144.737269 
L 61.979043 156.090807 
L 62.510617 144.955601 
L 62.776404 120.501826 
L 63.307978 115.698406 
L 63.839552 109.803294 
L 64.105338 116.353424 
L 64.371125 108.929945 
L 64.636912 110.676643 
L 64.902699 93.864655 
L 65.168486 102.379815 
L 65.434273 100.851472 
L 65.70006 100.633117 
L 65.965847 89.279579 
L 66.497421 81.856099 
L 66.763208 81.856099 
L 67.028995 79.454408 
L 67.294782 84.912833 
L 67.560568 81.201106 
L 67.826355 79.454408 
L 68.092142 80.546088 
L 68.623716 74.432644 
L 68.889503 82.074455 
L 69.15529 78.362703 
L 69.421077 80.109401 
L 69.686864 75.087662 
L 69.952651 76.397674 
L 70.218438 82.729448 
L 70.484225 73.777626 
L 71.015798 78.144372 
L 71.281585 71.812597 
L 71.813159 77.489354 
L 72.078946 80.109401 
L 72.344733 74.650975 
L 72.61052 74.432644 
L 72.876307 72.467615 
L 73.142094 79.017721 
L 73.407881 74.214313 
L 73.673668 75.961011 
L 73.939454 67.227496 
L 74.471028 73.340964 
L 74.736815 73.122609 
L 75.002602 70.939248 
L 75.268389 70.939248 
L 75.534176 69.410881 
L 75.799963 69.847568 
L 76.06575 76.179342 
L 76.331537 68.974219 
L 76.863111 74.214313 
L 77.128897 65.480798 
L 77.394684 67.882514 
L 77.660471 68.10087 
L 77.926258 66.354147 
L 78.192045 75.524325 
L 78.457832 66.572503 
L 78.723619 69.847568 
L 78.989406 66.135816 
L 79.255193 66.790834 
L 79.52098 64.389118 
L 79.786767 65.262467 
L 80.052554 64.170787 
L 80.318341 65.262467 
L 80.584127 64.170787 
L 80.849914 68.319201 
L 81.115701 68.319201 
L 81.381488 64.825804 
L 81.647275 66.572503 
L 81.913062 75.305993 
L 82.178849 72.467615 
L 82.444636 65.699154 
L 82.710423 67.227496 
L 82.97621 65.044136 
L 83.241997 68.537532 
L 83.507784 64.389118 
L 83.77357 64.825804 
L 84.039357 65.699154 
L 84.305144 63.515769 
L 84.570931 63.952455 
L 84.836718 63.7341 
L 85.102505 64.389118 
L 85.368292 67.009165 
L 85.634079 67.009165 
L 85.899866 67.445852 
L 86.165653 64.825804 
L 86.43144 65.262467 
L 86.697227 65.262467 
L 86.963013 65.917485 
L 87.2288 63.297437 
L 87.494587 62.424088 
L 87.760374 63.515769 
L 88.026161 66.135816 
L 88.291948 63.7341 
L 88.557735 63.7341 
L 88.823522 63.079106 
L 89.089309 63.079106 
L 89.620883 61.114053 
L 89.88667 63.079106 
L 90.152456 63.952455 
L 90.418243 64.170787 
L 90.68403 64.170787 
L 90.949817 63.515769 
L 91.215604 68.537532 
L 91.481391 63.297437 
L 91.747178 62.64242 
L 92.012965 62.860751 
L 92.278752 62.424088 
L 92.544539 61.550739 
L 92.810326 62.424088 
L 93.076113 66.790834 
L 93.3419 64.170787 
L 93.607686 63.7341 
L 93.873473 65.044136 
L 94.405047 61.769071 
L 94.670834 63.7341 
L 94.936621 64.170787 
L 95.202408 62.205757 
L 95.468195 66.354147 
L 95.733982 67.664183 
L 95.999769 61.550739 
L 96.265556 66.790834 
L 96.531343 62.64242 
L 96.797129 63.952455 
L 97.062916 67.882514 
L 97.328703 64.170787 
L 97.860277 64.607449 
L 98.126064 65.262467 
L 98.391851 62.860751 
L 98.657638 63.297437 
L 98.923425 64.825804 
L 99.189212 64.607449 
L 99.720786 61.114053 
L 99.986572 63.079106 
L 100.252359 62.64242 
L 100.518146 64.170787 
L 100.783933 61.332408 
L 101.04972 61.550739 
L 101.581294 63.952455 
L 101.847081 61.769071 
L 102.112868 64.389118 
L 102.378655 61.769071 
L 102.644442 61.769071 
L 102.910229 63.7341 
L 103.176015 60.67739 
L 103.441802 60.459059 
L 103.973376 67.009165 
L 104.239163 60.459059 
L 104.50495 66.135816 
L 104.770737 63.7341 
L 105.036524 63.952455 
L 105.568098 61.769071 
L 105.833885 61.550739 
L 106.099672 63.952455 
L 106.365459 63.515769 
L 106.631245 64.389118 
L 106.897032 62.860751 
L 107.162819 63.7341 
L 107.428606 60.022372 
L 107.96018 62.860751 
L 108.225967 62.424088 
L 108.491754 60.022372 
L 108.757541 62.424088 
L 109.023328 67.445852 
L 109.289115 65.262467 
L 109.554902 66.572503 
L 109.820688 62.424088 
L 110.086475 62.64242 
L 110.352262 62.205757 
L 110.618049 62.860751 
L 110.883836 62.860751 
L 111.149623 67.009165 
L 111.681197 58.275674 
L 111.946984 66.354147 
L 112.212771 65.480798 
L 112.478558 62.424088 
L 112.744345 63.515769 
L 113.010131 63.079106 
L 113.275918 57.183994 
L 113.541705 64.825804 
L 113.807492 59.804041 
L 114.073279 62.860751 
L 114.339066 59.58571 
L 114.604853 63.297437 
L 114.87064 63.952455 
L 115.402214 62.424088 
L 115.668001 60.240704 
L 115.933788 62.64242 
L 116.199574 63.7341 
L 116.731148 60.459059 
L 116.996935 67.445852 
L 117.262722 62.205757 
L 117.528509 64.607449 
L 117.794296 65.044136 
L 118.060083 64.389118 
L 118.32587 62.860751 
L 118.591657 62.860751 
L 118.857444 60.67739 
L 119.123231 62.205757 
L 119.389017 61.550739 
L 119.654804 63.079106 
L 119.920591 63.952455 
L 120.452165 61.332408 
L 120.717952 59.367354 
L 120.983739 61.550739 
L 121.249526 61.332408 
L 121.515313 60.459059 
L 121.7811 61.114053 
L 122.046887 60.67739 
L 122.312674 61.769071 
L 122.844247 60.459059 
L 123.110034 64.170787 
L 123.375821 63.7341 
L 123.641608 63.515769 
L 123.907395 61.550739 
L 124.173182 62.860751 
L 124.438969 61.332408 
L 124.970543 62.64242 
L 125.23633 61.987402 
L 125.502117 63.7341 
L 125.767904 61.332408 
L 126.03369 63.7341 
L 126.299477 60.022372 
L 126.565264 66.790834 
L 126.831051 61.769071 
L 127.096838 62.424088 
L 127.362625 62.424088 
L 127.894199 60.895721 
L 128.159986 62.424088 
L 128.425773 61.114053 
L 128.957347 65.699154 
L 129.223133 62.64242 
L 129.48892 66.354147 
L 129.754707 62.860751 
L 130.020494 63.7341 
L 130.286281 60.895721 
L 130.552068 64.389118 
L 130.817855 62.205757 
L 131.349429 62.64242 
L 131.615216 63.515769 
L 131.881003 63.297437 
L 132.14679 64.389118 
L 132.412576 60.895721 
L 132.678363 63.079106 
L 132.94415 62.860751 
L 133.209937 63.079106 
L 133.475724 62.424088 
L 133.741511 62.64242 
L 134.007298 62.424088 
L 134.273085 63.7341 
L 134.538872 60.67739 
L 134.804659 61.987402 
L 135.070446 62.64242 
L 135.336233 60.240704 
L 135.60202 62.860751 
L 135.867806 59.804041 
L 136.133593 65.044136 
L 136.39938 61.987402 
L 136.665167 63.297437 
L 136.930954 63.079106 
L 137.196741 63.079106 
L 137.462528 59.149023 
L 137.728315 62.860751 
L 137.994102 61.769071 
L 138.259889 62.205757 
L 138.525676 62.860751 
L 138.791463 62.64242 
L 139.057249 65.044136 
L 139.323036 63.297437 
L 139.588823 63.079106 
L 139.85461 63.952455 
L 140.120397 59.149023 
L 140.386184 62.64242 
L 140.651971 60.895721 
L 140.917758 63.297437 
L 141.183545 62.424088 
L 141.449332 60.459059 
L 141.715119 61.114053 
L 141.980906 62.205757 
L 142.246692 61.114053 
L 142.512479 62.424088 
L 142.778266 60.459059 
L 143.044053 62.64242 
L 143.30984 60.022372 
L 143.575627 61.332408 
L 144.107201 59.58571 
L 144.372988 60.240704 
L 144.638775 62.424088 
L 144.904562 60.459059 
L 145.170349 59.58571 
L 145.436135 59.367354 
L 145.701922 62.860751 
L 145.967709 61.114053 
L 146.233496 63.079106 
L 146.499283 61.550739 
L 146.76507 62.860751 
L 147.296644 63.297437 
L 147.562431 63.079106 
L 147.828218 61.769071 
L 148.094005 61.550739 
L 148.625579 63.952455 
L 148.891365 63.297437 
L 149.157152 58.930692 
L 149.422939 63.515769 
L 149.688726 60.895721 
L 149.954513 60.895721 
L 150.2203 62.64242 
L 150.486087 60.67739 
L 150.751874 59.804041 
L 151.017661 60.459059 
L 151.283448 61.987402 
L 151.549235 60.67739 
L 151.815022 60.895721 
L 152.080808 60.67739 
L 152.346595 62.424088 
L 152.612382 62.205757 
L 152.878169 62.424088 
L 153.143956 62.424088 
L 153.409743 58.712361 
L 153.67553 60.67739 
L 153.941317 60.895721 
L 154.207104 59.367354 
L 154.472891 60.022372 
L 154.738678 59.367354 
L 155.004465 64.389118 
L 155.270251 59.804041 
L 155.536038 62.205757 
L 155.801825 60.459059 
L 156.067612 63.297437 
L 156.333399 60.459059 
L 156.599186 61.987402 
L 156.864973 61.114053 
L 157.396547 57.620656 
L 157.662334 61.114053 
L 158.193908 59.804041 
L 158.459694 60.459059 
L 158.725481 59.804041 
L 158.991268 59.804041 
L 159.257055 60.022372 
L 159.522842 58.930692 
L 159.788629 61.332408 
L 160.320203 59.804041 
L 160.58599 56.965663 
L 160.851777 60.022372 
L 161.117564 58.275674 
L 161.383351 61.332408 
L 161.649138 61.550739 
L 161.914924 60.022372 
L 162.180711 60.459059 
L 162.446498 59.58571 
L 162.712285 60.459059 
L 162.978072 59.58571 
L 163.243859 61.332408 
L 163.509646 57.839012 
L 163.775433 59.367354 
L 164.04122 61.769071 
L 164.307007 57.839012 
L 164.572794 62.205757 
L 164.838581 59.58571 
L 165.104367 61.769071 
L 165.370154 58.712361 
L 165.635941 60.67739 
L 165.901728 60.895721 
L 166.167515 61.550739 
L 166.433302 62.860751 
L 166.699089 61.987402 
L 166.964876 60.459059 
L 167.230663 61.114053 
L 167.49645 59.58571 
L 167.762237 60.240704 
L 168.028024 57.839012 
L 168.559597 61.769071 
L 168.825384 60.022372 
L 169.091171 61.114053 
L 169.356958 61.550739 
L 169.622745 63.515769 
L 169.888532 60.022372 
L 170.154319 59.367354 
L 170.420106 60.022372 
L 170.95168 58.494005 
L 171.217467 61.332408 
L 171.483253 60.459059 
L 171.74904 60.459059 
L 172.014827 60.240704 
L 172.280614 60.895721 
L 172.546401 60.895721 
L 172.812188 60.67739 
L 173.077975 58.712361 
L 173.343762 60.022372 
L 173.875336 60.022372 
L 174.141123 58.494005 
L 174.672697 61.332408 
L 174.938483 58.494005 
L 175.20427 60.459059 
L 175.470057 59.804041 
L 176.001631 62.860751 
L 176.267418 61.769071 
L 176.533205 61.550739 
L 176.798992 61.550739 
L 177.064779 61.769071 
L 177.596353 57.839012 
L 178.127926 60.459059 
L 178.393713 59.804041 
L 178.6595 59.804041 
L 178.925287 59.58571 
L 179.191074 58.712361 
L 179.456861 59.149023 
L 179.722648 62.424088 
L 179.988435 60.459059 
L 180.520009 59.367354 
L 180.785796 60.67739 
L 181.051583 60.022372 
L 181.583156 61.114053 
L 181.848943 59.58571 
L 182.11473 60.240704 
L 182.380517 59.804041 
L 182.646304 60.459059 
L 182.912091 59.58571 
L 183.177878 58.275674 
L 183.443665 60.022372 
L 183.709452 60.895721 
L 183.975239 60.022372 
L 184.241026 58.057343 
L 184.506812 60.240704 
L 184.772599 55.873958 
L 185.038386 59.149023 
L 185.304173 59.804041 
L 185.56996 59.367354 
L 185.835747 61.332408 
L 186.101534 59.804041 
L 186.367321 59.804041 
L 186.633108 58.275674 
L 186.898895 61.332408 
L 187.164682 58.275674 
L 187.430469 61.114053 
L 187.696255 59.58571 
L 187.962042 59.149023 
L 188.227829 60.240704 
L 188.493616 60.240704 
L 188.759403 59.804041 
L 189.02519 58.275674 
L 189.556764 59.804041 
L 189.822551 59.804041 
L 190.088338 59.58571 
L 190.354125 60.459059 
L 190.885699 59.149023 
L 191.151485 59.58571 
L 191.417272 60.67739 
L 191.683059 58.494005 
L 191.948846 60.240704 
L 192.214633 58.930692 
L 192.48042 60.895721 
L 192.746207 60.67739 
L 193.011994 56.092314 
L 193.277781 59.804041 
L 193.543568 60.67739 
L 193.809355 59.58571 
L 194.075142 60.459059 
L 194.340928 58.275674 
L 194.606715 59.58571 
L 194.872502 60.022372 
L 195.138289 59.149023 
L 195.404076 59.58571 
L 195.669863 58.930692 
L 195.93565 59.804041 
L 196.201437 58.712361 
L 196.467224 59.58571 
L 196.733011 59.58571 
L 196.998798 60.022372 
L 197.264585 58.712361 
L 197.530371 58.930692 
L 197.796158 59.804041 
L 198.061945 59.367354 
L 198.327732 60.67739 
L 198.593519 60.022372 
L 199.125093 59.58571 
L 199.39088 60.022372 
L 199.656667 59.367354 
L 199.922454 59.149023 
L 200.188241 60.240704 
L 200.454028 60.240704 
L 200.719814 61.114053 
L 200.985601 58.494005 
L 201.251388 60.022372 
L 201.517175 60.459059 
L 201.782962 59.367354 
L 202.048749 60.459059 
L 202.314536 59.149023 
L 202.580323 60.022372 
L 202.84611 59.149023 
L 203.111897 59.58571 
L 203.377684 58.712361 
L 203.643471 60.022372 
L 203.909258 60.240704 
L 204.175044 59.367354 
L 204.440831 58.930692 
L 204.706618 60.459059 
L 204.972405 59.58571 
L 205.238192 60.022372 
L 205.769766 59.149023 
L 206.035553 60.67739 
L 206.30134 60.022372 
L 206.567127 60.240704 
L 206.832914 59.367354 
L 207.098701 55.873958 
L 207.364487 60.022372 
L 207.630274 59.804041 
L 207.896061 60.022372 
L 208.161848 59.367354 
L 208.427635 60.240704 
L 208.959209 58.712361 
L 209.224996 60.022372 
L 209.490783 60.240704 
L 209.75657 58.930692 
L 210.288144 59.804041 
L 210.55393 59.804041 
L 210.819717 60.022372 
L 211.085504 59.58571 
L 211.351291 60.022372 
L 211.617078 60.022372 
L 211.882865 60.459059 
L 212.148652 60.459059 
L 212.414439 60.022372 
L 212.680226 59.804041 
L 212.946013 59.149023 
L 213.2118 60.022372 
L 213.477587 58.275674 
L 213.743373 59.149023 
L 214.00916 58.930692 
L 214.274947 59.804041 
L 214.540734 58.930692 
L 214.806521 60.240704 
L 215.072308 60.022372 
L 215.603882 58.712361 
L 215.869669 59.804041 
L 216.135456 59.58571 
L 216.401243 56.528976 
L 216.66703 60.240704 
L 217.198603 59.149023 
L 217.46439 58.712361 
L 217.730177 60.022372 
L 217.995964 60.022372 
L 218.261751 59.367354 
L 218.527538 59.149023 
L 218.793325 59.804041 
L 219.059112 59.804041 
L 219.324899 59.367354 
L 219.590686 60.459059 
L 219.856473 58.712361 
L 220.388046 60.459059 
L 220.653833 59.58571 
L 220.91962 59.58571 
L 221.185407 60.459059 
L 221.716981 58.057343 
L 221.982768 60.459059 
L 222.248555 59.149023 
L 222.514342 59.804041 
L 222.780129 59.149023 
L 223.311703 59.149023 
L 223.577489 59.804041 
L 223.843276 59.367354 
L 224.109063 60.67739 
L 224.37485 59.149023 
L 224.640637 60.022372 
L 224.906424 59.804041 
L 225.172211 58.930692 
L 225.437998 59.58571 
L 225.703785 59.58571 
L 225.969572 59.804041 
L 226.235359 58.930692 
L 226.501146 59.367354 
L 226.766932 59.367354 
L 227.032719 59.149023 
L 227.298506 59.149023 
L 227.83008 59.58571 
L 228.095867 59.367354 
L 228.361654 58.930692 
L 228.627441 59.367354 
L 228.893228 60.022372 
L 229.159015 58.275674 
L 229.424802 60.240704 
L 229.956376 58.712361 
L 230.222162 58.930692 
L 230.487949 59.58571 
L 231.28531 60.240704 
L 231.551097 59.804041 
L 231.816884 58.930692 
L 232.348458 59.804041 
L 232.614245 59.149023 
L 232.880032 59.149023 
L 233.145819 59.58571 
L 233.411605 59.367354 
L 233.677392 60.022372 
L 233.943179 59.58571 
L 234.208966 58.930692 
L 234.474753 59.367354 
L 234.74054 60.240704 
L 235.006327 59.58571 
L 235.272114 59.58571 
L 235.803688 59.149023 
L 236.069475 59.149023 
L 236.335262 59.58571 
L 236.601048 59.804041 
L 236.866835 59.149023 
L 237.132622 59.149023 
L 237.398409 59.58571 
L 237.664196 58.930692 
L 237.929983 59.149023 
L 238.19577 59.58571 
L 238.461557 59.804041 
L 238.993131 59.367354 
L 239.258918 59.367354 
L 239.524705 59.804041 
L 239.790491 59.367354 
L 240.322065 59.367354 
L 240.587852 59.58571 
L 240.853639 60.022372 
L 241.119426 59.367354 
L 241.385213 59.58571 
L 241.651 59.367354 
L 241.916787 59.367354 
L 242.182574 59.58571 
L 242.448361 60.240704 
L 242.714148 59.149023 
L 243.245721 59.149023 
L 243.511508 59.367354 
L 243.777295 59.149023 
L 244.574656 59.804041 
L 244.840443 58.930692 
L 245.10623 60.022372 
L 245.372017 59.367354 
L 245.637804 59.58571 
L 245.903591 59.367354 
L 246.435164 59.804041 
L 246.700951 59.367354 
L 247.232525 59.804041 
L 247.498312 59.149023 
L 247.764099 59.367354 
L 248.029886 59.367354 
L 248.295673 59.58571 
L 248.56146 59.149023 
L 248.827247 59.149023 
L 249.093034 60.240704 
L 249.358821 59.58571 
L 249.624607 59.367354 
L 249.890394 59.58571 
L 250.156181 59.367354 
L 250.421968 58.930692 
L 250.687755 59.804041 
L 250.953542 59.367354 
L 251.219329 59.58571 
L 251.485116 59.149023 
L 251.750903 59.367354 
L 252.01669 59.804041 
L 252.548264 59.367354 
L 253.079837 59.367354 
L 253.345624 59.149023 
L 253.611411 59.804041 
L 253.877198 59.58571 
L 254.142985 59.149023 
L 254.408772 59.804041 
L 254.674559 59.367354 
L 256.003493 59.367354 
L 256.26928 59.149023 
L 256.535067 59.149023 
L 256.800854 59.58571 
L 257.066641 59.804041 
L 257.598215 59.367354 
L 257.864002 59.804041 
L 258.129789 59.58571 
L 258.395576 59.804041 
L 258.92715 59.367354 
L 259.192937 59.58571 
L 259.72451 59.58571 
L 259.990297 59.367354 
L 260.256084 59.367354 
L 260.521871 59.149023 
L 260.787658 59.804041 
L 261.053445 59.367354 
L 261.319232 59.58571 
L 265.040249 59.58571 
L 265.040249 59.58571 
" style="fill:none;stroke:#ff7f0e;stroke-linecap:square;stroke-width:1.5;"/>
   </g>
   <g id="patch_3">
    <path d="M 44.57 246.04 
L 44.57 10.8 
" style="fill:none;stroke:#000000;stroke-linecap:square;stroke-linejoin:miter;stroke-width:0.8;"/>
   </g>
   <g id="patch_4">
    <path d="M 275.538832 246.04 
L 275.538832 10.8 
" style="fill:none;stroke:#000000;stroke-linecap:square;stroke-linejoin:miter;stroke-width:0.8;"/>
   </g>
   <g id="patch_5">
    <path d="M 44.57 246.04 
L 275.538832 246.04 
" style="fill:none;stroke:#000000;stroke-linecap:square;stroke-linejoin:miter;stroke-width:0.8;"/>
   </g>
   <g id="patch_6">
    <path d="M 44.57 10.8 
L 275.538832 10.8 
" style="fill:none;stroke:#000000;stroke-linecap:square;stroke-linejoin:miter;stroke-width:0.8;"/>
   </g>
   <g id="legend_1">
    <g id="patch_7">
     <path d="M 183.727894 241.04 
L 268.538832 241.04 
Q 270.538832 241.04 270.538832 239.04 
L 270.538832 210.68375 
Q 270.538832 208.68375 268.538832 208.68375 
L 183.727894 208.68375 
Q 181.727894 208.68375 181.727894 210.68375 
L 181.727894 239.04 
Q 181.727894 241.04 183.727894 241.04 
z
" style="fill:#ffffff;opacity:0.8;stroke:#cccccc;stroke-linejoin:miter;"/>
    </g>
    <g id="line2d_27">
     <path d="M 185.727894 216.782187 
L 205.727894 216.782187 
" style="fill:none;stroke:#1f77b4;stroke-linecap:square;stroke-width:1.5;"/>
    </g>
    <g id="line2d_28"/>
    <g id="text_15">
     <!-- top-3 train -->
     <defs>
      <path d="M 18.3125 70.21875 
L 18.3125 54.6875 
L 36.8125 54.6875 
L 36.8125 47.703125 
L 18.3125 47.703125 
L 18.3125 18.015625 
Q 18.3125 11.328125 20.140625 9.421875 
Q 21.96875 7.515625 27.59375 7.515625 
L 36.8125 7.515625 
L 36.8125 0 
L 27.59375 0 
Q 17.1875 0 13.234375 3.875 
Q 9.28125 7.765625 9.28125 18.015625 
L 9.28125 47.703125 
L 2.6875 47.703125 
L 2.6875 54.6875 
L 9.28125 54.6875 
L 9.28125 70.21875 
z
" id="DejaVuSans-116"/>
      <path d="M 4.890625 31.390625 
L 31.203125 31.390625 
L 31.203125 23.390625 
L 4.890625 23.390625 
z
" id="DejaVuSans-45"/>
      <path id="DejaVuSans-32"/>
      <path d="M 9.421875 54.6875 
L 18.40625 54.6875 
L 18.40625 0 
L 9.421875 0 
z
M 9.421875 75.984375 
L 18.40625 75.984375 
L 18.40625 64.59375 
L 9.421875 64.59375 
z
" id="DejaVuSans-105"/>
      <path d="M 54.890625 33.015625 
L 54.890625 0 
L 45.90625 0 
L 45.90625 32.71875 
Q 45.90625 40.484375 42.875 44.328125 
Q 39.84375 48.1875 33.796875 48.1875 
Q 26.515625 48.1875 22.3125 43.546875 
Q 18.109375 38.921875 18.109375 30.90625 
L 18.109375 0 
L 9.078125 0 
L 9.078125 54.6875 
L 18.109375 54.6875 
L 18.109375 46.1875 
Q 21.34375 51.125 25.703125 53.5625 
Q 30.078125 56 35.796875 56 
Q 45.21875 56 50.046875 50.171875 
Q 54.890625 44.34375 54.890625 33.015625 
z
" id="DejaVuSans-110"/>
     </defs>
     <g transform="translate(213.727894 220.282187)scale(0.1 -0.1)">
      <use xlink:href="#DejaVuSans-116"/>
      <use x="39.208984" xlink:href="#DejaVuSans-111"/>
      <use x="100.390625" xlink:href="#DejaVuSans-112"/>
      <use x="163.867188" xlink:href="#DejaVuSans-45"/>
      <use x="199.951172" xlink:href="#DejaVuSans-51"/>
      <use x="263.574219" xlink:href="#DejaVuSans-32"/>
      <use x="295.361328" xlink:href="#DejaVuSans-116"/>
      <use x="334.570312" xlink:href="#DejaVuSans-114"/>
      <use x="375.683594" xlink:href="#DejaVuSans-97"/>
      <use x="436.962891" xlink:href="#DejaVuSans-105"/>
      <use x="464.746094" xlink:href="#DejaVuSans-110"/>
     </g>
    </g>
    <g id="line2d_29">
     <path d="M 185.727894 231.460312 
L 205.727894 231.460312 
" style="fill:none;stroke:#ff7f0e;stroke-linecap:square;stroke-width:1.5;"/>
    </g>
    <g id="line2d_30"/>
    <g id="text_16">
     <!-- top-3 val -->
     <defs>
      <path d="M 2.984375 54.6875 
L 12.5 54.6875 
L 29.59375 8.796875 
L 46.6875 54.6875 
L 56.203125 54.6875 
L 35.6875 0 
L 23.484375 0 
z
" id="DejaVuSans-118"/>
      <path d="M 9.421875 75.984375 
L 18.40625 75.984375 
L 18.40625 0 
L 9.421875 0 
z
" id="DejaVuSans-108"/>
     </defs>
     <g transform="translate(213.727894 234.960312)scale(0.1 -0.1)">
      <use xlink:href="#DejaVuSans-116"/>
      <use x="39.208984" xlink:href="#DejaVuSans-111"/>
      <use x="100.390625" xlink:href="#DejaVuSans-112"/>
      <use x="163.867188" xlink:href="#DejaVuSans-45"/>
      <use x="199.951172" xlink:href="#DejaVuSans-51"/>
      <use x="263.574219" xlink:href="#DejaVuSans-32"/>
      <use x="295.361328" xlink:href="#DejaVuSans-118"/>
      <use x="354.541016" xlink:href="#DejaVuSans-97"/>
      <use x="415.820312" xlink:href="#DejaVuSans-108"/>
     </g>
    </g>
   </g>
  </g>
 </g>
 <defs>
  <clipPath id="pc68d92d483">
   <rect height="235.24" width="230.968832" x="44.57" y="10.8"/>
  </clipPath>
 </defs>
</svg>
